CRKG,3,32,10,  108.37 (ms),   40.44 (ms),   80.79 (µs)
CRKG,3,64,10,  168.13 (ms),   31.25 (ms),  305.31 (µs)
CRKG,3,128,10,  203.41 (ms),   70.15 (ms),   59.24 (µs)
CRKG,3,256,10,  208.09 (ms),  110.41 (ms),    3.07 (ms)
CRKG,3,512,10,  730.94 (ms),  309.35 (ms),  175.38 (µs)
CRKG,3,1024,10, 4419.55 (ms), 1413.12 (ms),  563.33 (µs)

CRKG,3,32,10,   76.54 (ms),   41.93 (ms),  184.12 (µs)
CRKG,3,64,10,  151.50 (ms),   66.34 (ms),  138.18 (µs)
CRKG,3,128,10,  161.19 (ms),   54.68 (ms),   78.94 (µs)
CRKG,3,256,10,  146.32 (ms),   67.73 (ms),  203.83 (µs)
CRKG,3,512,10,  676.82 (ms),  207.35 (ms),  209.74 (µs)
CRKG,3,1024,10, 2692.12 (ms), 2040.87 (ms),  476.75 (µs)

CRKG,3,32,10,  108.37 (ms),   46.82 (ms),   71.68 (µs)
CRKG,3,64,10,  100.41 (ms),   60.54 (ms),   54.31 (µs)
CRKG,3,128,10,  162.93 (ms),   49.89 (ms),   74.14 (µs)
CRKG,3,256,10,  132.49 (ms),   58.25 (ms),  112.94 (µs)
CRKG,3,512,10,  745.22 (ms),  239.53 (ms),  189.05 (µs)
CRKG,3,1024,10, 2918.77 (ms), 1354.40 (ms),  492.88 (µs)

CRKG,3,32,10,  120.83 (ms),   56.77 (ms),   85.72 (µs)
CRKG,3,64,10,  117.62 (ms),   32.45 (ms),   75.25 (µs)
CRKG,3,128,10,  178.59 (ms),   42.60 (ms),   67.37 (µs)
CRKG,3,256,10,  148.51 (ms),   78.66 (ms),   98.77 (µs)
CRKG,3,512,10,  794.10 (ms),  201.15 (ms),  209.61 (µs)
CRKG,3,1024,10, 3196.32 (ms), 1483.48 (ms),  487.09 (µs)

CRKG,3,32,10,   77.60 (ms),   39.40 (ms),   73.65 (µs)
CRKG,3,64,10,  122.85 (ms),   68.88 (ms),  107.52 (µs)
CRKG,3,128,10,  153.78 (ms),   56.06 (ms),   65.15 (µs)
CRKG,3,256,10,  207.94 (ms),   62.39 (ms),    3.07 (ms)
CRKG,3,512,10,  539.42 (ms),  295.02 (ms),  177.84 (µs)
CRKG,3,1024,10, 3162.82 (ms), 2234.73 (ms),  421.82 (µs)

CRKG,10,32,10,   55.94 (ms),   49.88 (ms),    6.21 (ms)
CRKG,10,64,10,   42.89 (ms),   16.47 (ms),  665.06 (µs)
CRKG,10,128,10,   84.44 (ms),   40.76 (ms),  414.62 (µs)
CRKG,10,256,10,  155.04 (ms),   53.65 (ms),  709.39 (µs)
CRKG,10,512,10,  491.51 (ms),  217.02 (ms),    1.91 (ms)
CRKG,10,1024,10, 3317.42 (ms), 1380.41 (ms),    4.63 (ms)

